###################################################################################################
#                                                                                                 #
#  Para este reto debes darnos el md5 de la combinacion de los MD5_File de las fotos asi:         #
#                                                                                                 #
#  Si hay 2 fotos (foto1.jpg y foto2.jpg) debes sacar el MD5_File de foto1.jpg y el md5_file      #
#  de foto2.jpg, suponiendo que para la primera es abcdef123456789abcfde123985461bc y para la     #
#  segunda fde123abc985461bcabcdef123456789 debes unirlos asi:                                    #
#                                                                                                 #
#  abcdef123456789abcfde123985461bcfde123abc985461bcabcdef123456789 y sacar el md5 de ese texto.  #
#  f947f54f485ced81e4a7f12811c86792 siendo esta la respuesta del reto (para este caso)...         #
#                                                                                                 #
#########################                                          ################################
			#     Saludos y Buena suerteeeeee!!!!      #
			#                                          #
			############################################